23 68
 _____________________________        _____________________________ 
|              •              |      |                             |
| -9- --- --- --- --- --- -5- |      | --- --- --- --- --- --- --- |
| |A| | | | | | | | |•| | |F| |      | | | | | | | | | | | | | |f| |
| --- --- --- --- --- --- --- |      | --- --- --- --- --- --- --- |
|     •         •             |      |   •                         |
| --- --- --- -2- --- --- --- |      | --- --- --- --- --- --- --- |
| | | | | | | |C| | | | | | | |      | |d| | | | | |a| | | | | | | |
| --- --- --- --- --- --- --- |______| --- --- --- --- --- --- --- |
|       •      •      •          •          •                      |
| --- --- -7- --- --- --- -3- ________ --- --- --- --- --- --- --- |
| | | | | |B| | | | | | | |D| |      | | | | | | | | | | | | | | | |
| --- --- --- --- --- --- --- |      | --- --- --- --- --- --- --- |
|  •             •            |      |                             |
| --- --- --- --- --- --- --- |      | --- --- --- --- --- --- --- |
| | | | | | | | | | | | | | | |      | | | | | |b| | | | | | | | | |
| --- --- --- --- --- --- --- |______| --- --- --- --- --- --- --- |
|               •              •             •                     |
| --- --- -2- --- --- --- --- ________ --- --- --- --- --- --- --- |
| | | | | |E| | | | | | | | | |      | | | |c| | | | | | | | | |e| |
| --- --- --- --- --- --- --- |      | --- --- --- --- --- --- --- |
|       •     •        •      |      |                             |
|_____________________________|      |_____________________________|